// Jest Snapshot v1, https://goo.gl/fbAQLP

exports[`The accounts lambda handler should handle all supported routes and supply a fallback 1`] = `
Array [
  Array [
    "/profiles/:accountIds",
    undefined,
  ],
  Array [
    "/ids/:orcid",
    undefined,
  ],
  Array [
    "/orcid/search/:query",
    [Function],
  ],
  Array [
    "/orcid/:orcid/work/:putCode",
    [Function],
  ],
  Array [
    "/orcid/:orcid",
    [Function],
  ],
]
`;

exports[`The accounts lambda handler should handle all supported routes and supply a fallback 2`] = `
Array [
  Array [
    "/",
    undefined,
  ],
  Array [
    "/:sessionId/orcid/verify/:code",
    undefined,
  ],
  Array [
    "/:sessionId/jwt",
    undefined,
  ],
]
`;
