// Jest Snapshot v1, https://goo.gl/fbAQLP

exports[`should match the snapshot 1`] = `
<Component>
  <ReactGAListener>
    <div
      className="appShell"
    >
      <a
        className="skipLink"
        href="#content"
      >
        Skip to Content
      </a>
      <header
        className="appHeader container"
        role="banner"
      >
        <nav
          aria-label="main navigation"
          className="navbar"
          role="navigation"
        >
          <div
            className="navbar-brand"
          >
            <Link
              className="navbar-item"
              replace={false}
              to="/"
            >
              Flockademic 
              <small>
                (beta)
              </small>
            </Link>
            <a
              aria-controls="mainMenu"
              aria-expanded={false}
              aria-haspopup={true}
              aria-label="Menu"
              className="burger navbar-burger"
              href=""
              onClick={[Function]}
              title="Menu"
            >
              <span />
              <span />
              <span />
            </a>
          </div>
          <div
            className="navbar-menu"
            id="mainMenu"
          >
            <div
              className="navbar-end"
            >
              <div
                className="navbar-item"
              >
                <Link
                  className="button is-text"
                  replace={false}
                  title="View your journals"
                  to="/dashboard"
                >
                  Dashboard
                </Link>
              </div>
              <div
                className="navbar-item"
              >
                <withRouter(Connect(BareOrcidButton))
                  className="button is-text"
                >
                  <span
                    className="icon"
                  >
                    <img
                      alt=""
                      src={Object {}}
                    />
                  </span>
                  <span>
                    Create account / sign in
                  </span>
                </withRouter(Connect(BareOrcidButton))>
              </div>
            </div>
          </div>
        </nav>
      </header>
      <main
        id="content"
        role="main"
        tabIndex={-1}
      >
        <Connect(BareAlertCallout) />
        <Switch>
          <Route
            component={[Function]}
            exact={true}
            path="/"
          />
          <Route
            component={[Function]}
            exact={true}
            path="/journals"
          />
          <Route
            component={[Function]}
            exact={true}
            path="/journals/new"
          />
          <Route
            component={[Function]}
            exact={true}
            path="/journal/:slug/manage"
          />
          <Route
            component={[Function]}
            exact={true}
            path="/journal/:periodicalSlug/submit"
          />
          <Route
            component={[Function]}
            exact={true}
            path="/articles/new/:orcidWorkId?"
          />
          <Route
            component={[Function]}
            exact={true}
            path="/article/:articleId/manage"
          />
          <Route
            component={[Function]}
            exact={true}
            path="/article/:articleId"
          />
          <Route
            component={[Function]}
            exact={true}
            path="/journal/:slug"
          />
          <Route
            component={[Function]}
            exact={true}
            path="/profile/:orcid?"
          />
          <Route
            component={[Function]}
            exact={true}
            path="/dashboard"
          />
          <Route
            component={[Function]}
          />
        </Switch>
      </main>
      <footer
        className="footer"
        role="contentinfo"
      >
        <div
          className="container"
        >
          <p
            className="content is-pulled-left"
          >
            Powered by 
            <Link
              replace={false}
              title="Flockademic homepage"
              to="/"
            >
              Flockademic
            </Link>
            , an effort to help researchers achieve 
            <OutboundLink
              eventLabel="fairoa"
              onClick={null}
              target={null}
              title="Fair Open Access principles"
              to="https://fairoa.org/"
            >
              Fair Open Access
            </OutboundLink>
            .
          </p>
          <p
            className="content is-pulled-right"
          >
            <OutboundLink
              eventLabel="blog"
              onClick={null}
              target={null}
              title="Flockademic weblog"
              to="https://medium.com/flockademic"
            >
              Blog
            </OutboundLink>
             | 
            <OutboundLink
              eventLabel="newsletter"
              onClick={null}
              target={null}
              title="Flockademic newsletter"
              to="https://tinyletter.com/Flockademic"
            >
              Newsletter
            </OutboundLink>
             | 
            <OutboundLink
              eventLabel="twitter"
              onClick={null}
              target={null}
              title="Flockademic on Twitter"
              to="https://twitter.com/Flockademic"
            >
              Twitter
            </OutboundLink>
             | 
            <OutboundLink
              eventLabel="gitlab"
              onClick={null}
              target={null}
              title="Flockademic source code"
              to="https://gitlab.com/Flockademic/Flockademic"
            >
              Source code
            </OutboundLink>
          </p>
        </div>
      </footer>
    </div>
  </ReactGAListener>
</Component>
`;
